{
	"countries":[{

			"iso2" : "RU",
			"cities" : [[37.6116943359375, 55.7501220703125], [30.311279296875, 59.9359130859375], [82.9302978515625, 55.03875732421875], [60.611572265625, 56.85150146484375], [44.000244140625, 56.326904296875], [50.1470947265625, 53.19854736328125], [73.36669921875, 54.9920654296875]]
		}, {
			"iso2" : "RW",
			"cities" : [[30.05859375, -1.94732666015625], [29.7344970703125, -2.59552001953125], [29.7564697265625, -2.07366943359375], [29.630126953125, -1.4996337890625], [29.2510986328125, -1.70013427734375], [30.0640869140625, -1.57379150390625], [28.905029296875, -2.48291015625]]
		}, {
			"iso2" : "RS",
			"cities" : [[20.4620361328125, 44.80224609375], [21.9012451171875, 43.3245849609375], [19.8358154296875, 45.24993896484375], [20.3961181640625, 44.8406982421875], [20.9124755859375, 44.01397705078125], [20.3466796875, 43.890380859375], [19.66552734375, 46.0986328125]]
		}, {
			"iso2" : "LR",
			"cities" : [[-10.7940673828125, 6.29791259765625], [-9.47021484375, 6.99554443359375], [-10.34912109375, 6.52862548828125], [-10.6072998046875, 6.4434814453125], [-7.71240234375, 4.37255859375], [-9.744873046875, 8.4210205078125], [-10.04150390625, 5.88043212890625]]
		}, {
			"iso2" : "RO",
			"cities" : [[26.103515625, 44.43145751953125], [27.59765625, 47.164306640625], [23.5986328125, 46.76605224609375], [21.2255859375, 45.7525634765625], [23.79638671875, 44.31610107421875], [28.6468505859375, 44.1815185546875], [28.048095703125, 45.44769287109375]]
		}, {
			"iso2" : "GW",
			"cities" : [[-15.5950927734375, 11.86248779296875], [-14.6612548828125, 12.16461181640625], [-14.21630859375, 12.28271484375], [-15.44677734375, 12.2222900390625], [-15.4632568359375, 11.58233642578125], [-16.160888671875, 12.26898193359375], [-15.2490234375, 11.282958984375]]
		}, {
			"iso2" : "GT",
			"cities" : [[-90.5108642578125, 14.6392822265625], [-90.604248046875, 14.63104248046875], [-90.582275390625, 14.52667236328125], [-90.54931640625, 14.501953125], [-90.6427001953125, 14.7161865234375], [-91.51611328125, 14.83428955078125], [-90.52734375, 14.47998046875]]
		}, {
			"iso2" : "GR",
			"cities" : [[23.7139892578125, 37.97698974609375], [22.939453125, 40.638427734375], [23.631591796875, 37.94677734375], [21.73095703125, 38.243408203125], [23.697509765625, 38.01544189453125], [25.1422119140625, 35.3265380859375], [22.4176025390625, 39.63592529296875]]
		}, {
			"iso2" : "GQ",
			"cities" : [[9.7613525390625, 1.8621826171875], [8.778076171875, 3.74908447265625], [11.3323974609375, 2.15057373046875], [10.9368896484375, 1.29638671875], [10.7666015625, 1.86492919921875], [8.5528564453125, 3.4552001953125], [10.546875, 1.43646240234375]]
		}, {
			"iso2" : "GY",
			"cities" : [[-58.150634765625, 6.80328369140625], [-58.304443359375, 6.00677490234375], [-57.513427734375, 6.2457275390625], [-58.502197265625, 7.261962890625], [-58.612060546875, 6.3995361328125], [-57.12890625, 5.8831787109375], [-57.535400390625, 6.27044677734375]]
		}, {
			"iso2" : "GF",
			"cities" : [[-52.327880859375, 4.932861328125], [-52.31689453125, 4.844970703125], [-54.03076171875, 5.4986572265625], [-52.646484375, 5.152587890625], [-52.261962890625, 4.9163818359375], [-52.371826171875, 4.910888671875], [-53.7725830078125, 5.657958984375]]
		}, {
			"iso2" : "GE",
			"cities" : [[44.8297119140625, 41.693115234375], [42.69287109375, 42.26715087890625], [41.6326904296875, 41.64093017578125], [40.9844970703125, 43.0059814453125], [41.868896484375, 42.506103515625], [44.989013671875, 41.54754638671875], [41.671142578125, 42.1435546875]]
		}, {
			"iso2" : "GB",
			"cities" : [[-0.087890625, 51.51214599609375], [-0.120849609375, 51.50665283203125], [-1.8951416015625, 52.47894287109375], [-4.2572021484375, 55.86273193359375], [-2.977294921875, 53.4100341796875], [-1.5435791015625, 53.7945556640625], [-1.461181640625, 53.382568359375]]
		}, {
			"iso2" : "GA",
			"cities" : [[9.4482421875, 0.3900146484375], [8.778076171875, -0.71685791015625], [13.5791015625, -1.6314697265625], [11.5740966796875, 1.5985107421875], [13.216552734375, -1.55731201171875], [11.05224609375, -1.86767578125], [10.2392578125, -0.6976318359375]]
		}, {
			"iso2" : "GN",
			"cities" : [[-13.6834716796875, 9.53338623046875], [-13.6724853515625, 9.5361328125], [-8.8165283203125, 7.75360107421875], [-12.864990234375, 10.05523681640625], [-9.305419921875, 10.38482666015625], [-10.12939453125, 8.56658935546875], [-13.3758544921875, 9.70367431640625]]
		}, {
			"iso2" : "GL",
			"cities" : [[-51.7181396484375, 64.18212890625], [-53.668212890625, 66.93695068359375], [-51.097412109375, 69.21661376953125], [-46.03271484375, 60.7159423828125], [-52.8662109375, 68.70849609375], [-52.899169921875, 65.41534423828125], [-49.6636962890625, 61.99310302734375]]
		}, {
			"iso2" : "KW",
			"cities" : [[48.0816650390625, 29.0753173828125], [48.0267333984375, 29.33074951171875], [48.0706787109375, 29.33349609375], [48.05419921875, 29.256591796875], [47.955322265625, 29.27581787109375], [48.1256103515625, 29.080810546875], [47.977294921875, 29.36920166015625]]
		}, {
			"iso2" : "GH",
			"cities" : [[-0.1922607421875, 5.5535888671875], [-1.6204833984375, 6.68792724609375], [-0.8349609375, 9.3988037109375], [-1.7523193359375, 4.8834228515625], [-0.32958984375, 5.69915771484375], [-0.0164794921875, 5.6689453125], [-0.1043701171875, 5.5810546875]]
		}, {
			"iso2" : "OM",
			"cities" : [[58.590087890625, 23.61236572265625], [58.1890869140625, 23.6700439453125], [54.0911865234375, 17.0123291015625], [58.3978271484375, 23.5546875], [56.744384765625, 24.3621826171875], [57.4365234375, 23.84857177734375], [56.513671875, 23.22509765625]]
		}, {
			"iso2" : "TN",
			"cities" : [[10.162353515625, 36.81793212890625], [10.755615234375, 34.73876953125], [10.634765625, 35.82366943359375], [10.9918212890625, 33.80767822265625], [10.0909423828125, 35.67535400390625], [9.8712158203125, 37.27386474609375], [10.096435546875, 33.87908935546875]]
		}, {
			"iso2" : "JO",
			"cities" : [[35.9417724609375, 31.9537353515625], [36.0845947265625, 32.07183837890625], [35.848388671875, 32.55523681640625], [36.046142578125, 32.01690673828125], [35.8154296875, 31.95098876953125], [35.74951171875, 32.332763671875], [35.00244140625, 29.5257568359375]]
		}, {
			"iso2" : "HR",
			"cities" : [[15.97412109375, 45.81298828125], [15.97412109375, 45.81298828125], [16.435546875, 43.50860595703125], [14.4085693359375, 45.340576171875], [18.6932373046875, 45.54931640625], [15.238037109375, 44.11834716796875], [18.0120849609375, 45.1593017578125]]
		}, {
			"iso2" : "HT",
			"cities" : [[-72.333984375, 18.53668212890625], [-72.3944091796875, 18.5394287109375], [-72.301025390625, 18.54217529296875], [-72.2845458984375, 18.511962890625], [-72.828369140625, 19.93743896484375], [-72.2186279296875, 18.5723876953125], [-72.53173828125, 18.2318115234375]]
		}, {
			"iso2" : "HU",
			"cities" : [[19.039306640625, 47.49664306640625], [21.632080078125, 47.5323486328125], [20.7806396484375, 48.09814453125], [20.1434326171875, 46.25244140625], [18.2318115234375, 46.0821533203125], [19.0338134765625, 47.47467041015625], [17.633056640625, 47.6806640625]]
		}, {
			"iso2" : "HN",
			"cities" : [[-87.2039794921875, 14.08172607421875], [-88.0224609375, 15.501708984375], [-87.9510498046875, 15.61431884765625], [-86.781005859375, 15.75714111328125], [-87.7972412109375, 15.3973388671875], [-87.1875, 13.2989501953125], [-87.6324462890625, 14.44976806640625]]
		}, {
			"iso2" : "PT",
			"cities" : [[-9.129638671875, 38.7158203125], [-8.6077880859375, 41.1492919921875], [-9.228515625, 38.75152587890625], [-8.41552734375, 41.55029296875], [-8.887939453125, 38.5235595703125], [-8.41552734375, 40.2044677734375], [-9.25048828125, 38.7542724609375]]
		}, {
			"iso2" : "SJ",
			"cities" : [[15.6390380859375, 78.2171630859375], [-8.7176513671875, 70.91949462890625]]
		}, {
			"iso2" : "PY",
			"cities" : [[-57.63427734375, -25.29876708984375], [-54.6075439453125, -25.50750732421875], [-57.5079345703125, -25.33721923828125], [-57.4420166015625, -25.35369873046875], [-57.601318359375, -25.345458984375], [-57.535400390625, -25.32073974609375], [-57.48046875, -25.1641845703125]]
		}, {
			"iso2" : "PA",
			"cities" : [[-79.51904296875, 8.9923095703125], [-79.4970703125, 9.03076171875], [-79.3817138671875, 9.08294677734375], [-82.430419921875, 8.426513671875], [-79.6453857421875, 8.9483642578125], [-79.8980712890625, 9.35760498046875], [-79.530029296875, 9.08294677734375]]
		}, {
			"iso2" : "PG",
			"cities" : [[147.1783447265625, -9.4427490234375], [146.9805908203125, -6.72088623046875], [155.533447265625, -6.2127685546875], [144.2230224609375, -5.855712890625], [148.238525390625, -8.75885009765625], [145.7940673828125, -5.2239990234375], [152.259521484375, -4.3505859375]]
		}, {
			"iso2" : "PE",
			"cities" : [[-77.025146484375, -12.041015625], [-71.531982421875, -16.3970947265625], [-77.113037109375, -12.05474853515625], [-79.024658203125, -8.1134033203125], [-79.837646484375, -6.77032470703125], [-73.2513427734375, -3.74908447265625], [-75.201416015625, -12.06298828125]]
		}, {
			"iso2" : "PK",
			"cities" : [[67.0770263671875, 24.90325927734375], [74.3389892578125, 31.5472412109375], [73.0810546875, 31.4154052734375], [73.0645751953125, 33.59893798828125], [71.4715576171875, 30.19317626953125], [68.3734130859375, 25.39215087890625], [74.1851806640625, 32.15972900390625]]
		}, {
			"iso2" : "PH",
			"cities" : [[120.9814453125, 14.60357666015625], [121.04736328125, 14.64752197265625], [124.4366455078125, 7.2015380859375], [125.6121826171875, 7.07244873046875], [124.4696044921875, 7.16033935546875], [123.8873291015625, 10.316162109375], [125.167236328125, 6.11114501953125]]
		}, {
			"iso2" : "PL",
			"cities" : [[21.0113525390625, 52.22900390625], [19.4622802734375, 51.74835205078125], [19.9346923828125, 50.0592041015625], [17.02880859375, 51.097412109375], [16.9244384765625, 52.40478515625], [18.643798828125, 54.349365234375], [14.5513916015625, 53.426513671875]]
		}, {
			"iso2" : "ZM",
			"cities" : [[28.2843017578125, -15.40557861328125], [28.212890625, -12.80181884765625], [28.6358642578125, -12.9583740234375], [28.443603515625, -14.44427490234375], [27.88330078125, -12.52716064453125], [28.2403564453125, -12.54913330078125], [28.4161376953125, -13.1341552734375]]
		}, {
			"iso2" : "EH",
			"cities" : [[-13.2000732421875, 27.16094970703125], [-15.9576416015625, 23.68377685546875], [-11.66748046875, 26.73797607421875], [-13.414306640625, 27.09503173828125]]
		}, {
			"iso2" : "EE",
			"cities" : [[24.752197265625, 59.43603515625], [26.7242431640625, 58.37860107421875], [28.1854248046875, 59.3756103515625], [27.26806640625, 59.3975830078125], [24.4940185546875, 58.38409423828125], [25.587158203125, 58.36212158203125], [26.3507080078125, 59.34539794921875]]
		}, {
			"iso2" : "EG",
			"cities" : [[31.2451171875, 30.06134033203125], [29.9542236328125, 31.21490478515625], [31.2066650390625, 30.00640869140625], [32.2833251953125, 31.256103515625], [32.5250244140625, 29.97344970703125], [31.1627197265625, 30.97320556640625], [32.640380859375, 25.697021484375]]
		}, {
			"iso2" : "ZA",
			"cities" : [[18.4185791015625, -33.92578125], [31.025390625, -29.8553466796875], [28.0426025390625, -26.19964599609375], [27.8558349609375, -26.26556396484375], [28.1854248046875, -25.74371337890625], [25.565185546875, -33.91754150390625], [30.38818359375, -29.61639404296875]]
		}, {
			"iso2" : "EC",
			"cities" : [[-79.903564453125, -2.20550537109375], [-78.5247802734375, -0.22796630859375], [-79.002685546875, -2.900390625], [-79.1729736328125, -0.252685546875], [-79.95849609375, -3.2574462890625], [-80.7110595703125, -0.9613037109375], [-80.452880859375, -1.05194091796875]]
		}, {
			"iso2" : "IT",
			"cities" : [[12.48046875, 41.89361572265625], [9.1845703125, 45.46417236328125], [14.249267578125, 40.8306884765625], [7.6849365234375, 45.06866455078125], [13.359375, 38.11431884765625], [8.931884765625, 44.40399169921875], [11.2445068359375, 43.7640380859375]]
		}, {
			"iso2" : "AO",
			"cities" : [[13.2330322265625, -8.83575439453125], [14.908447265625, -9.29718017578125], [15.7379150390625, -12.77435302734375], [13.53515625, -12.36236572265625], [13.4033203125, -12.5738525390625], [16.929931640625, -12.381591796875], [13.4912109375, -14.91668701171875]]
		}, {
			"iso2" : "ET",
			"cities" : [[38.7432861328125, 9.02252197265625], [41.8634033203125, 9.591064453125], [39.473876953125, 13.49395751953125], [39.26513671875, 8.54736328125], [37.386474609375, 11.59332275390625], [37.46337890625, 12.59857177734375], [39.6331787109375, 11.13189697265625]]
		}, {
			"iso2" : "ZW",
			"cities" : [[31.0528564453125, -17.8253173828125], [28.5809326171875, -20.14892578125], [31.0748291015625, -18.0120849609375], [32.6678466796875, -18.97064208984375], [29.8114013671875, -19.44854736328125], [31.146240234375, -17.88848876953125], [29.8114013671875, -18.92669677734375]]
		}, {
			"iso2" : "ES",
			"cities" : [[-3.702392578125, 40.41595458984375], [2.1588134765625, 41.38824462890625], [-0.37353515625, 39.4683837890625], [-5.9710693359375, 37.3809814453125], [-0.8734130859375, 41.6546630859375], [-4.41650390625, 36.71905517578125], [-1.1260986328125, 37.9852294921875]]
		}, {
			"iso2" : "ER",
			"cities" : [[38.9300537109375, 15.3369140625], [38.4466552734375, 15.7763671875], [39.473876953125, 15.6060791015625], [42.73681640625, 13.0078125], [38.814697265625, 14.886474609375], [37.5897216796875, 15.10345458984375], [39.375, 14.842529296875]]
		}, {
			"iso2" : "ME",
			"cities" : [[19.259033203125, 42.440185546875], [18.9404296875, 42.77252197265625], [18.533935546875, 42.451171875], [19.35791015625, 43.35479736328125], [18.8360595703125, 42.286376953125], [19.0997314453125, 42.09136962890625], [19.742431640625, 43.03619384765625]]
		}, {
			"iso2" : "MD",
			"cities" : [[28.8555908203125, 47.0050048828125], [29.64111328125, 46.8402099609375], [27.92724609375, 47.76031494140625], [29.4708251953125, 46.8292236328125], [28.9984130859375, 47.76580810546875], [28.19091796875, 45.9063720703125], [27.79541015625, 47.2027587890625]]
		}, {
			"iso2" : "MG",
			"cities" : [[47.5323486328125, -18.9129638671875], [49.4000244140625, -18.14666748046875], [47.032470703125, -19.86328125], [47.0819091796875, -21.4508056640625], [46.3128662109375, -15.7159423828125], [43.6651611328125, -23.34869384765625], [49.2901611328125, -12.2772216796875]]
		}, {
			"iso2" : "MA",
			"cities" : [[-7.6080322265625, 33.58795166015625], [-6.8280029296875, 34.01092529296875], [-4.998779296875, 34.03564453125], [-6.7950439453125, 34.0521240234375], [-7.998046875, 31.63238525390625], [-9.5965576171875, 30.41839599609375], [-5.7952880859375, 35.7659912109375]]
		}, {
			"iso2" : "UZ",
			"cities" : [[69.2138671875, 41.26190185546875], [71.6693115234375, 40.99822998046875], [66.9561767578125, 39.65240478515625], [72.3394775390625, 40.78125], [64.423828125, 39.77325439453125], [59.6063232421875, 42.451171875], [65.7861328125, 38.858642578125]]
		}, {
			"iso2" : "MM",
			"cities" : [[96.15234375, 16.8035888671875], [96.0809326171875, 21.97265625], [96.1248779296875, 19.742431640625], [97.62451171875, 16.490478515625], [96.4764404296875, 17.33367919921875], [94.7296142578125, 16.77886962890625], [95.130615234375, 22.10723876953125]]
		}, {
			"iso2" : "ML",
			"cities" : [[-7.998046875, 12.64801025390625], [-5.6634521484375, 11.31591796875], [-4.1802978515625, 14.48272705078125], [-5.460205078125, 12.38983154296875], [-6.2127685546875, 13.4307861328125], [-0.0439453125, 16.270751953125], [-11.4422607421875, 14.44427490234375]]
		}, {
			"iso2" : "MN",
			"cities" : [[106.8804931640625, 47.9058837890625], [104.0789794921875, 49.031982421875], [105.919189453125, 49.48516845703125], [91.636962890625, 48.0047607421875], [89.9615478515625, 48.966064453125], [92.0654296875, 49.97955322265625], [102.1728515625, 44.66766357421875]]
		}, {
			"iso2" : "US",
			"cities" : [[-74.00390625, 40.71258544921875], [-118.2403564453125, 34.0521240234375], [-87.64892578125, 41.84967041015625], [-73.948974609375, 40.6494140625], [-73.8336181640625, 40.67962646484375], [-95.361328125, 29.761962890625], [-75.1629638671875, 39.9517822265625]]
		}, {
			"iso2" : "MW",
			"cities" : [[33.782958984375, -13.96636962890625], [35.0079345703125, -15.78460693359375], [34.0191650390625, -11.4642333984375], [35.3155517578125, -15.38360595703125], [33.4808349609375, -13.03253173828125], [35.2606201171875, -14.47723388671875], [33.9312744140625, -9.931640625]]
		}, {
			"iso2" : "MR",
			"cities" : [[-15.97412109375, 18.08349609375], [-17.0343017578125, 20.928955078125], [-7.2509765625, 16.61407470703125], [-13.502197265625, 16.1444091796875], [-15.8038330078125, 16.512451171875], [-11.40380859375, 16.61407470703125], [-12.447509765625, 22.71697998046875]]
		}, {
			"iso2" : "UG",
			"cities" : [[32.5799560546875, 0.31585693359375], [32.2943115234375, 2.7740478515625], [32.8985595703125, 2.24945068359375], [30.6463623046875, -0.604248046875], [33.20068359375, 0.43670654296875], [30.6243896484375, -0.59051513671875], [34.1729736328125, 1.07940673828125]]
		}, {
			"iso2" : "UA",
			"cities" : [[30.52001953125, 50.45196533203125], [36.2493896484375, 49.97955322265625], [34.98046875, 48.44970703125], [37.7984619140625, 48.021240234375], [30.728759765625, 46.47491455078125], [35.189208984375, 47.82073974609375], [24.0216064453125, 49.83673095703125]]
		}, {
			"iso2" : "MX",
			"cities" : [[-99.1241455078125, 19.42657470703125], [-99.063720703125, 19.35516357421875], [-99.063720703125, 19.6160888671875], [-103.3868408203125, 20.665283203125], [-98.2012939453125, 19.04205322265625], [-106.4794921875, 31.73126220703125], [-116.9989013671875, 32.50030517578125]]
		}, {
			"iso2" : "IL",
			"cities" : [[35.211181640625, 31.7669677734375], [35.2166748046875, 31.78070068359375], [34.9859619140625, 32.816162109375], [34.7772216796875, 32.080078125], [34.6453857421875, 31.79168701171875], [34.7882080078125, 31.97021484375], [34.881591796875, 32.091064453125]]
		}, {
			"iso2" : "FR",
			"cities" : [[2.3455810546875, 48.8507080078125], [5.3778076171875, 43.29437255859375], [4.844970703125, 45.7470703125], [1.439208984375, 43.60198974609375], [7.261962890625, 43.70086669921875], [-1.549072265625, 47.21649169921875], [7.7398681640625, 48.58154296875]]
		}, {
			"iso2" : "FI",
			"cities" : [[24.9334716796875, 60.16937255859375], [24.6478271484375, 60.205078125], [23.785400390625, 61.49871826171875], [25.037841796875, 60.29296875], [22.2637939453125, 60.44952392578125], [25.46630859375, 65.0115966796875], [25.6585693359375, 60.98236083984375]]
		}, {
			"iso2" : "NI",
			"cities" : [[-86.2481689453125, 12.13165283203125], [-86.8743896484375, 12.4365234375], [-86.0888671875, 11.97235107421875], [-86.0943603515625, 12.19482421875], [-87.1270751953125, 12.6287841796875], [-85.9130859375, 12.9254150390625], [-86.3525390625, 13.0902099609375]]
		}, {
			"iso2" : "NL",
			"cities" : [[4.888916015625, 52.371826171875], [4.4769287109375, 51.92138671875], [4.295654296875, 52.0751953125], [5.11962890625, 52.08892822265625], [5.4766845703125, 51.44073486328125], [5.086669921875, 51.5533447265625], [6.5643310546875, 53.2177734375]]
		}, {
			"iso2" : "NO",
			"cities" : [[10.74462890625, 59.91119384765625], [5.3228759765625, 60.391845703125], [10.39306640625, 63.4295654296875], [5.7293701171875, 58.9691162109375], [10.2008056640625, 59.74365234375], [10.9259033203125, 59.21630859375], [7.9925537109375, 58.1451416015625]]
		}, {
			"iso2" : "NA",
			"cities" : [[17.0782470703125, -22.55767822265625], [19.764404296875, -17.93243408203125], [14.501953125, -22.9559326171875], [15.6829833984375, -17.7813720703125], [14.5294189453125, -22.6812744140625], [24.2633056640625, -17.49847412109375], [18.116455078125, -19.566650390625]]
		}, {
			"iso2" : "NE",
			"cities" : [[2.109375, 13.51318359375], [8.98681640625, 13.80706787109375], [7.09716796875, 13.49945068359375], [7.987060546875, 16.97113037109375], [8.0145263671875, 17.017822265625], [5.2679443359375, 14.886474609375], [3.1915283203125, 13.0462646484375]]
		}, {
			"iso2" : "NG",
			"cities" : [[3.394775390625, 6.45172119140625], [8.514404296875, 11.99981689453125], [3.8946533203125, 7.38555908203125], [7.437744140625, 10.52215576171875], [7.00927734375, 4.77630615234375], [5.625, 6.3336181640625], [13.1561279296875, 11.84600830078125]]
		}, {
			"iso2" : "NZ",
			"cities" : [[174.7650146484375, -36.8646240234375], [174.7705078125, -41.28662109375], [172.628173828125, -43.5333251953125], [174.8748779296875, -36.990966796875], [174.6551513671875, -36.91680908203125], [174.74853515625, -36.7987060546875], [175.2813720703125, -37.781982421875]]
		}, {
			"iso2" : "NP",
			"cities" : [[85.31982421875, 27.69927978515625], [83.968505859375, 28.26507568359375], [85.308837890625, 27.674560546875], [87.2808837890625, 26.4825439453125], [84.8748779296875, 27.0098876953125], [87.2808837890625, 26.8121337890625], [84.429931640625, 27.68280029296875]]
		}, {
			"iso2" : "CI",
			"cities" : [[-4.010009765625, 5.30914306640625], [-4.0155029296875, 5.41351318359375], [-5.0262451171875, 7.69317626953125], [-6.448974609375, 6.87469482421875], [-6.6357421875, 4.74609375], [-5.2734375, 6.81976318359375], [-5.625, 9.45648193359375]]
		}, {
			"iso2" : "CH",
			"cities" : [[8.54736328125, 47.36480712890625], [6.141357421875, 46.20025634765625], [7.569580078125, 47.55706787109375], [7.4432373046875, 46.94732666015625], [6.6302490234375, 46.51336669921875], [8.7451171875, 47.4993896484375], [9.371337890625, 47.4224853515625]]
		}, {
			"iso2" : "CO",
			"cities" : [[-74.080810546875, 4.6087646484375], [-76.519775390625, 3.43597412109375], [-75.5584716796875, 6.251220703125], [-74.7784423828125, 10.96710205078125], [-75.509033203125, 10.3985595703125], [-72.5042724609375, 7.8936767578125], [-73.1195068359375, 7.1246337890625]]
		}, {
			"iso2" : "CN",
			"cities" : [[121.453857421875, 31.22039794921875], [114.027099609375, 32.97821044921875], [116.3946533203125, 39.90509033203125], [106.083984375, 30.794677734375], [117.1197509765625, 36.1834716796875], [113.09326171875, 29.3719482421875], [114.3072509765625, 34.79644775390625]]
		}, {
			"iso2" : "CM",
			"cities" : [[9.700927734375, 4.04571533203125], [11.513671875, 3.86444091796875], [13.3978271484375, 9.2999267578125], [15.029296875, 12.07672119140625], [10.1568603515625, 5.95184326171875], [14.315185546875, 10.5908203125], [10.4150390625, 5.4766845703125]]
		}, {
			"iso2" : "CL",
			"cities" : [[-70.6475830078125, -33.45611572265625], [-70.5706787109375, -33.60992431640625], [-70.3948974609375, -23.65081787109375], [-71.5484619140625, -33.02215576171875], [-71.6253662109375, -33.03863525390625], [-73.114013671875, -36.72454833984375], [-70.697021484375, -33.5906982421875]]
		}, {
			"iso2" : "CA",
			"cities" : [[-79.4146728515625, 43.6981201171875], [-73.58642578125, 45.50811767578125], [-123.1182861328125, 49.24896240234375], [-114.08203125, 51.0479736328125], [-75.69580078125, 45.40924072265625], [-113.466796875, 53.55010986328125], [-79.6563720703125, 43.5772705078125]]
		}, {
			"iso2" : "CG",
			"cities" : [[15.281982421875, -4.26544189453125], [11.8597412109375, -4.7735595703125], [12.6617431640625, -4.19677734375], [13.282470703125, -4.2022705078125], [15.897216796875, -0.48065185546875], [16.051025390625, 1.61224365234375], [11.854248046875, -4.75433349609375]]
		}, {
			"iso2" : "CF",
			"cities" : [[18.5504150390625, 4.35882568359375], [18.4130859375, 4.25445556640625], [17.984619140625, 3.8671875], [15.787353515625, 4.25994873046875], [19.18212890625, 6.9873046875], [16.3751220703125, 6.317138671875], [15.875244140625, 4.94110107421875]]
		}, {
			"iso2" : "CD",
			"cities" : [[15.303955078125, -4.32037353515625], [27.476806640625, -11.65924072265625], [23.587646484375, -6.1358642578125], [25.1861572265625, 0.51361083984375], [15.3863525390625, -4.383544921875], [22.412109375, -5.8941650390625], [26.729736328125, -10.9808349609375]]
		}, {
			"iso2" : "CZ",
			"cities" : [[14.4195556640625, 50.086669921875], [16.6058349609375, 49.19403076171875], [18.28125, 49.833984375], [13.3758544921875, 49.74609375], [17.24853515625, 49.59503173828125], [15.05126953125, 50.76507568359375], [14.468994140625, 48.97430419921875]]
		}, {
			"iso2" : "CR",
			"cities" : [[-84.078369140625, 9.931640625], [-83.0291748046875, 9.9920654296875], [-84.1278076171875, 9.9920654296875], [-84.210205078125, 10.0140380859375], [-85.4351806640625, 10.634765625], [-83.8641357421875, 9.8382568359375], [-84.83642578125, 9.9755859375]]
		}, {
			"iso2" : "CU",
			"cities" : [[-82.3809814453125, 23.1317138671875], [-75.816650390625, 20.0225830078125], [-77.9150390625, 21.37939453125], [-76.2615966796875, 20.885009765625], [-75.2069091796875, 20.1434326171875], [-79.9639892578125, 22.39837646484375], [-82.3590087890625, 23.0877685546875]]
		}, {
			"iso2" : "SZ",
			"cities" : [[31.376953125, -26.49627685546875], [31.1297607421875, -26.31500244140625], [31.9317626953125, -26.81488037109375], [31.17919921875, -26.56494140625], [31.849365234375, -26.0321044921875], [31.6131591796875, -27.21588134765625], [31.9482421875, -26.4495849609375]]
		}, {
			"iso2" : "SY",
			"cities" : [[37.15576171875, 36.199951171875], [36.287841796875, 33.50830078125], [36.7218017578125, 34.72503662109375], [36.7547607421875, 35.13153076171875], [35.7879638671875, 35.52978515625], [40.1385498046875, 35.33477783203125], [39.0069580078125, 35.9527587890625]]
		}, {
			"iso2" : "KG",
			"cities" : [[74.586181640625, 42.86865234375], [72.806396484375, 40.51483154296875], [72.9986572265625, 40.93231201171875], [78.3929443359375, 42.4896240234375], [75.30029296875, 42.8411865234375], [73.8446044921875, 42.813720703125], [75.9869384765625, 41.42669677734375]]
		}, {
			"iso2" : "KE",
			"cities" : [[36.815185546875, -1.28265380859375], [39.66064453125, -4.053955078125], [36.0626220703125, -0.28289794921875], [35.26611328125, 0.51910400390625], [34.7607421875, -0.10162353515625], [37.06787109375, -1.03271484375], [40.1165771484375, -3.21624755859375]]
		}, {
			"iso2" : "SR",
			"cities" : [[-55.162353515625, 5.86395263671875], [-55.228271484375, 5.69915771484375], [-54.964599609375, 5.064697265625], [-56.9805908203125, 5.9490966796875], [-54.3988037109375, 5.614013671875], [-55.0799560546875, 5.8831787109375], [-55.01953125, 5.8447265625]]
		}, {
			"iso2" : "KH",
			"cities" : [[104.9139404296875, 11.56036376953125], [104.7821044921875, 10.98907470703125], [103.524169921875, 10.6072998046875], [103.194580078125, 13.1011962890625], [103.8592529296875, 13.359375], [102.557373046875, 13.656005859375], [104.6612548828125, 12.249755859375]]
		}, {
			"iso2" : "SV",
			"cities" : [[-89.18701171875, 13.68896484375], [-89.1485595703125, 13.73291015625], [-89.5550537109375, 13.99383544921875], [-88.1817626953125, 13.48297119140625], [-89.208984375, 13.7384033203125], [-89.27490234375, 13.67523193359375], [-89.176025390625, 13.80706787109375]]
		}, {
			"iso2" : "SK",
			"cities" : [[17.105712890625, 48.1475830078125], [21.2530517578125, 48.71337890625], [21.2310791015625, 48.99627685546875], [18.08349609375, 48.306884765625], [18.7371826171875, 49.22149658203125], [19.149169921875, 48.73809814453125], [17.5836181640625, 48.37554931640625]]
		}, {
			"iso2" : "KR",
			"cities" : [[126.9744873046875, 37.5677490234375], [129.0399169921875, 35.101318359375], [126.727294921875, 37.452392578125], [128.5894775390625, 35.86761474609375], [127.41943359375, 36.32080078125], [126.9140625, 35.15350341796875], [127.0074462890625, 37.29034423828125]]
		}, {
			"iso2" : "SI",
			"cities" : [[14.501953125, 46.0491943359375], [15.64453125, 46.5545654296875], [15.260009765625, 46.23046875], [14.3536376953125, 46.23870849609375], [15.106201171875, 46.3568115234375], [13.7274169921875, 45.54656982421875], [15.1666259765625, 45.802001953125]]
		}, {
			"iso2" : "KP",
			"cities" : [[125.74951171875, 39.03167724609375], [127.5347900390625, 39.91607666015625], [125.4034423828125, 38.73504638671875], [127.6171875, 39.8309326171875], [126.551513671875, 37.96875], [127.44140625, 39.15252685546875], [129.7705078125, 41.79473876953125]]
		}, {
			"iso2" : "SO",
			"cities" : [[45.340576171875, 2.03521728515625], [44.0606689453125, 9.55810546875], [45.010986328125, 10.43701171875], [42.5445556640625, -0.3570556640625], [44.769287109375, 1.7138671875], [42.7423095703125, 0.06866455078125], [43.648681640625, 3.11187744140625]]
		}, {
			"iso2" : "SN",
			"cities" : [[-17.4407958984375, 14.69146728515625], [-17.4517822265625, 14.710693359375], [-17.3858642578125, 14.76287841796875], [-15.8807373046875, 14.8480224609375], [-16.962890625, 14.7821044921875], [-16.4849853515625, 16.01531982421875], [-16.248779296875, 14.18060302734375]]
		}, {
			"iso2" : "SL",
			"cities" : [[-13.2275390625, 8.4814453125], [-11.7333984375, 7.96234130859375], [-11.18408203125, 7.87445068359375], [-10.9808349609375, 8.63250732421875], [-12.0465087890625, 8.8824462890625], [-12.5299072265625, 8.68194580078125], [-12.7825927734375, 8.76434326171875]]
		}, {
			"iso2" : "KZ",
			"cities" : [[76.92626953125, 43.25592041015625], [73.1634521484375, 49.83123779296875], [69.598388671875, 42.29736328125], [71.3616943359375, 42.89886474609375], [71.444091796875, 51.1798095703125], [77.003173828125, 52.27294921875], [82.6007080078125, 49.9713134765625]]
		}, {
			"iso2" : "SA",
			"cities" : [[46.7193603515625, 24.686279296875], [39.2156982421875, 21.5167236328125], [39.825439453125, 21.42608642578125], [39.6112060546875, 24.466552734375], [39.583740234375, 24.49127197265625], [50.1031494140625, 26.43310546875], [40.4132080078125, 21.26953125]]
		}, {
			"iso2" : "SE",
			"cities" : [[18.0615234375, 59.3316650390625], [11.964111328125, 57.7056884765625], [12.996826171875, 55.60455322265625], [17.6385498046875, 59.85626220703125], [16.5509033203125, 59.61456298828125], [15.205078125, 59.27398681640625], [15.6170654296875, 58.4088134765625]]
		}, {
			"iso2" : "SD",
			"cities" : [[32.530517578125, 15.5511474609375], [32.4755859375, 15.64178466796875], [37.2161865234375, 19.6160888671875], [36.397705078125, 15.44952392578125], [30.21240234375, 13.18359375], [35.3814697265625, 14.03228759765625], [32.662353515625, 13.16162109375]]
		}, {
			"iso2" : "DO",
			"cities" : [[-69.9884033203125, 18.49822998046875], [-70.697021484375, 19.4512939453125], [-69.9993896484375, 18.49822998046875], [-69.2962646484375, 18.45977783203125], [-68.97216796875, 18.42681884765625], [-69.927978515625, 18.44879150390625], [-70.0982666015625, 18.41583251953125]]
		}, {
			"iso2" : "DJ",
			"cities" : [[43.143310546875, 11.58782958984375], [42.9290771484375, 11.18133544921875], [42.7093505859375, 11.15386962890625], [42.879638671875, 11.7828369140625], [43.2861328125, 11.96136474609375], [42.3687744140625, 11.107177734375], [42.8411865234375, 11.52191162109375]]
		}, {
			"iso2" : "DK",
			"cities" : [[12.5628662109375, 55.6732177734375], [10.206298828125, 56.1566162109375], [10.3875732421875, 55.39581298828125], [9.9151611328125, 57.0465087890625], [12.5299072265625, 55.6787109375], [8.448486328125, 55.4644775390625], [10.0469970703125, 56.4642333984375]]
		}, {
			"iso2" : "DE",
			"cities" : [[13.4088134765625, 52.52288818359375], [10.0140380859375, 53.5748291015625], [11.5740966796875, 48.1365966796875], [6.9488525390625, 50.9326171875], [8.67919921875, 50.1141357421875], [7.00927734375, 51.4544677734375], [9.173583984375, 48.78204345703125]]
		}, {
			"iso2" : "YE",
			"cities" : [[44.2034912109375, 15.3533935546875], [42.9510498046875, 14.79583740234375], [44.0167236328125, 13.5791015625], [45.032958984375, 12.777099609375], [49.119873046875, 14.5404052734375], [44.1815185546875, 13.96636962890625], [44.4012451171875, 14.5404052734375]]
		}, {
			"iso2" : "DZ",
			"cities" : [[3.0377197265625, 36.75201416015625], [3.4716796875, 36.7657470703125], [-0.63720703125, 35.6890869140625], [8.118896484375, 35.4034423828125], [6.61376953125, 36.36474609375], [5.723876953125, 34.8486328125], [5.4107666015625, 36.18896484375]]
		}, {
			"iso2" : "MK",
			"cities" : [[21.4288330078125, 41.9952392578125], [21.708984375, 42.12982177734375], [21.33544921875, 41.0284423828125], [21.5496826171875, 41.34429931640625], [20.9674072265625, 42.00897216796875], [21.4398193359375, 42.01446533203125], [21.500244140625, 41.94854736328125]]
		}, {
			"iso2" : "UY",
			"cities" : [[-56.18408203125, -34.90081787109375], [-57.9638671875, -31.3824462890625], [-58.07373046875, -32.31903076171875], [-56.217041015625, -34.72503662109375], [-55.546875, -30.904541015625], [-54.9481201171875, -34.8980712890625], [-55.9808349609375, -31.73126220703125]]
		}, {
			"iso2" : "TZ",
			"cities" : [[39.26513671875, -6.822509765625], [32.8985595703125, -2.515869140625], [39.1937255859375, -6.163330078125], [36.6778564453125, -3.36456298828125], [33.4478759765625, -8.89892578125], [37.6611328125, -6.81976318359375], [39.0948486328125, -5.06744384765625]]
		}, {
			"iso2" : "LA",
			"cities" : [[102.5958251953125, 17.96539306640625], [105.79833984375, 15.11993408203125], [104.7491455078125, 16.56463623046875], [102.1343994140625, 19.88525390625], [104.0460205078125, 20.41534423828125], [103.1781005859375, 19.456787109375], [103.216552734375, 19.44854736328125]]
		}, {
			"iso2" : "TW",
			"cities" : [[121.53076171875, 25.04608154296875], [120.311279296875, 22.6153564453125], [120.6793212890625, 24.14520263671875], [120.21240234375, 22.9888916015625], [121.46484375, 25.01312255859375], [120.9649658203125, 24.8016357421875], [121.2945556640625, 24.99114990234375]]
		}, {
			"iso2" : "TR",
			"cities" : [[28.948974609375, 41.011962890625], [32.84912109375, 39.9188232421875], [27.13623046875, 38.41094970703125], [29.080810546875, 40.19073486328125], [35.3265380859375, 36.99920654296875], [37.3809814453125, 37.056884765625], [32.4810791015625, 37.869873046875]]
		}, {
			"iso2" : "LK",
			"cities" : [[79.8431396484375, 6.92962646484375], [79.859619140625, 6.8280029296875], [79.881591796875, 6.77032470703125], [80.00244140625, 9.66796875], [79.8321533203125, 7.20703125], [79.8980712890625, 6.888427734375], [79.903564453125, 6.8829345703125]]
		}, {
			"iso2" : "LV",
			"cities" : [[24.10400390625, 56.94488525390625], [26.531982421875, 55.8819580078125], [21.0113525390625, 56.53289794921875], [21.0113525390625, 56.51641845703125], [23.70849609375, 56.64825439453125], [23.7689208984375, 56.96685791015625], [21.55517578125, 57.3870849609375]]
		}, {
			"iso2" : "LT",
			"cities" : [[25.279541015625, 54.68719482421875], [23.895263671875, 54.898681640625], [21.11572265625, 55.7171630859375], [23.31298828125, 55.931396484375], [24.345703125, 55.73089599609375], [24.049072265625, 54.3988037109375], [23.9666748046875, 54.9151611328125]]
		}, {
			"iso2" : "TM",
			"cities" : [[58.38134765625, 37.94952392578125], [63.577880859375, 39.0728759765625], [59.96337890625, 41.8359375], [61.8255615234375, 37.59246826171875], [54.3658447265625, 39.50958251953125], [62.1661376953125, 37.6171875], [52.9541015625, 40.02044677734375]]
		}, {
			"iso2" : "TJ",
			"cities" : [[68.7744140625, 38.5345458984375], [69.620361328125, 40.2813720703125], [69.7796630859375, 37.913818359375], [68.7799072265625, 37.8314208984375], [68.9996337890625, 39.913330078125], [70.4278564453125, 40.2923583984375], [69.0106201171875, 38.55377197265625]]
		}, {
			"iso2" : "LS",
			"cities" : [[27.4822998046875, -29.31427001953125], [27.235107421875, -29.8223876953125], [28.0426025390625, -28.86932373046875], [27.894287109375, -28.88580322265625], [27.476806640625, -30.14923095703125], [28.685302734375, -30.113525390625], [27.696533203125, -30.399169921875]]
		}, {
			"iso2" : "TH",
			"cities" : [[100.4974365234375, 13.75213623046875], [100.5963134765625, 13.59832763671875], [100.513916015625, 13.8592529296875], [102.7825927734375, 17.413330078125], [100.9808349609375, 13.36212158203125], [102.1014404296875, 14.9688720703125], [98.9813232421875, 18.78936767578125]]
		}, {
			"iso2" : "TG",
			"cities" : [[1.20849609375, 6.1358642578125], [1.131591796875, 8.9813232421875], [1.1810302734375, 9.54986572265625], [1.131591796875, 7.5311279296875], [0.6317138671875, 6.8994140625], [0.780029296875, 9.25872802734375], [1.20849609375, 6.42425537109375]]
		}, {
			"iso2" : "TD",
			"cities" : [[15.040283203125, 12.10418701171875], [16.0784912109375, 8.56658935546875], [18.39111328125, 9.140625], [20.830078125, 13.82904052734375], [15.8038330078125, 9.30816650390625], [17.5506591796875, 8.909912109375], [14.9029541015625, 9.36309814453125]]
		}, {
			"iso2" : "LY",
			"cities" : [[13.18359375, 32.87384033203125], [20.126953125, 32.11578369140625], [15.0897216796875, 32.37396240234375], [13.6285400390625, 32.43438720703125], [14.26025390625, 32.6458740234375], [12.72216796875, 32.7557373046875], [12.7276611328125, 32.750244140625]]
		}, {
			"iso2" : "AE",
			"cities" : [[55.2996826171875, 25.257568359375], [54.3658447265625, 24.466552734375], [55.4095458984375, 25.33721923828125], [55.755615234375, 24.18914794921875], [55.4315185546875, 25.40863037109375], [55.9423828125, 25.78765869140625], [56.337890625, 25.11474609375]]
		}, {
			"iso2" : "VE",
			"cities" : [[-66.873779296875, 10.4864501953125], [-71.6363525390625, 10.6292724609375], [-67.5933837890625, 10.2447509765625], [-68.00537109375, 10.15960693359375], [-69.3182373046875, 10.07171630859375], [-62.6385498046875, 8.349609375], [-64.698486328125, 10.13214111328125]]
		}, {
			"iso2" : "AF",
			"cities" : [[69.169921875, 34.52728271484375], [65.709228515625, 31.6131591796875], [67.1099853515625, 36.70806884765625], [62.1990966796875, 34.34600830078125], [70.4498291015625, 34.4256591796875], [68.8568115234375, 36.727294921875], [68.4173583984375, 33.55224609375]]
		}, {
			"iso2" : "IQ",
			"cities" : [[44.395751953125, 33.3380126953125], [47.7960205078125, 30.531005859375], [43.08837890625, 36.32904052734375], [47.8125, 30.4925537109375], [43.1158447265625, 36.33453369140625], [44.0057373046875, 36.19171142578125], [44.1815185546875, 33.3050537109375]]
		}, {
			"iso2" : "IS",
			"cities" : [[-21.8902587890625, 64.13543701171875], [-21.9122314453125, 64.1107177734375], [-21.9342041015625, 64.0667724609375], [-18.08349609375, 65.6817626953125], [-21.917724609375, 64.08599853515625], [-21.697998046875, 64.1656494140625], [-22.5604248046875, 64.00360107421875]]
		}, {
			"iso2" : "IR",
			"cities" : [[51.416015625, 35.69183349609375], [59.56787109375, 36.3153076171875], [51.6741943359375, 32.6568603515625], [50.987548828125, 35.8319091796875], [46.2908935546875, 38.07861328125], [52.5311279296875, 29.608154296875], [50.8721923828125, 34.639892578125]]
		}, {
			"iso2" : "AM",
			"cities" : [[44.5111083984375, 40.17974853515625], [43.8409423828125, 40.792236328125], [44.4891357421875, 40.80322265625], [44.2913818359375, 40.16326904296875], [44.7637939453125, 40.49560546875], [44.62646484375, 40.264892578125], [46.4007568359375, 39.20745849609375]]
		}, {
			"iso2" : "AL",
			"cities" : [[19.8138427734375, 41.3250732421875], [19.4403076171875, 41.32232666015625], [20.0775146484375, 41.11083984375], [19.4842529296875, 40.46539306640625], [19.51171875, 42.066650390625], [19.566650390625, 40.71533203125], [20.7806396484375, 40.616455078125]]
		}, {
			"iso2" : "VN",
			"cities" : [[106.6278076171875, 10.821533203125], [105.8367919921875, 21.0223388671875], [108.2208251953125, 16.0675048828125], [106.6827392578125, 20.863037109375], [106.8145751953125, 10.9478759765625], [107.5946044921875, 16.46575927734375], [109.193115234375, 12.2442626953125]]
		}, {
			"iso2" : "AQ",
			"cities" : [[166.673583984375, -77.8436279296875]]
		}, {
			"iso2" : "AR",
			"cities" : [[-58.3758544921875, -34.6124267578125], [-64.1766357421875, -31.41265869140625], [-60.6390380859375, -32.94525146484375], [-68.8238525390625, -32.89031982421875], [-65.2203369140625, -26.8231201171875], [-57.952880859375, -34.9200439453125], [-57.557373046875, -38.001708984375]]
		}, {
			"iso2" : "AU",
			"cities" : [[151.204833984375, -33.8653564453125], [144.9591064453125, -37.81219482421875], [153.0230712890625, -27.4658203125], [115.8563232421875, -31.95098876953125], [138.5980224609375, -34.92828369140625], [153.4295654296875, -27.9986572265625], [149.1229248046875, -35.2825927734375]]
		}, {
			"iso2" : "AT",
			"cities" : [[16.36962890625, 48.2080078125], [15.44677734375, 47.0654296875], [14.2822265625, 48.30413818359375], [13.040771484375, 47.79876708984375], [11.392822265625, 47.26043701171875], [14.30419921875, 46.62322998046875], [13.853759765625, 46.6094970703125]]
		}, {
			"iso2" : "IN",
			"cities" : [[72.8778076171875, 19.072265625], [77.2283935546875, 28.65234375], [77.5909423828125, 12.9693603515625], [88.3575439453125, 22.5604248046875], [80.277099609375, 13.08746337890625], [72.586669921875, 23.02459716796875], [78.453369140625, 17.38311767578125]]
		}, {
			"iso2" : "AZ",
			"cities" : [[49.888916015625, 40.37750244140625], [46.3568115234375, 40.682373046875], [49.6636962890625, 40.5889892578125], [48.84521484375, 38.7542724609375], [47.054443359375, 40.76202392578125], [48.3673095703125, 39.9298095703125], [49.9713134765625, 40.39398193359375]]
		}, {
			"iso2" : "IE",
			"cities" : [[-6.2457275390625, 53.33038330078125], [-8.470458984375, 51.89666748046875], [-6.13037109375, 53.29193115234375], [-8.6187744140625, 52.6629638671875], [-9.0472412109375, 53.26995849609375], [-6.3720703125, 53.28369140625], [-7.108154296875, 52.2564697265625]]
		}, {
			"iso2" : "ID",
			"cities" : [[106.842041015625, -6.2127685546875], [112.7471923828125, -7.24822998046875], [98.6627197265625, 3.58154296875], [107.6165771484375, -6.90216064453125], [106.98486328125, -6.2347412109375], [104.74365234375, -2.91412353515625], [106.6278076171875, -6.17706298828125]]
		}, {
			"iso2" : "MY",
			"cities" : [[102.2332763671875, 6.13311767578125], [101.6839599609375, 3.13934326171875], [101.44775390625, 3.0322265625], [101.5301513671875, 3.1475830078125], [103.7548828125, 1.46392822265625], [101.57958984375, 3.043212890625], [101.0797119140625, 4.58404541015625]]
		}, {
			"iso2" : "MZ",
			"cities" : [[32.5799560546875, -25.96343994140625], [32.45361328125, -25.960693359375], [34.837646484375, -19.84130859375], [39.26513671875, -15.11444091796875], [33.4808349609375, -19.1162109375], [40.67138671875, -14.5404052734375], [36.8865966796875, -17.87750244140625]]
		}
	]
}
