{
"avas":[
"http://wayofhelp.com/pics/avatar/516_433_sm.jpg",
"http://wayofhelp.com/pics/avatar/481_26_sm.jpg",
"http://wayofhelp.com/pics/avatar/383_303_sm.jpg",
"http://wayofhelp.com/pics/avatar/515_433_sm.jpg",
"http://wayofhelp.com/pics/avatar/515_433_sm.jpg",
"http://wayofhelp.com/pics/avatar/375_322_sm.jpg",
"http://wayofhelp.com/pics/avatar/214_678_sm.jpg",
"http://wayofhelp.com/pics/avatar/365_608_sm.jpg",
"http://wayofhelp.com/pics/avatar/375_322_sm.jpg",
"http://wayofhelp.com/pics/avatar/481_26_sm.jpg",
"http://wayofhelp.com/pics/avatar/383_303_sm.jpg",
"http://wayofhelp.com/pics/avatar/516_433_sm.jpg",
"http://wayofhelp.com/pics/avatar/481_26_sm.jpg",
"http://wayofhelp.com/pics/avatar/375_322_sm.jpg",
"http://wayofhelp.com/pics/avatar/458_659_sm.jpg",
"http://wayofhelp.com/pics/avatar/485_472_sm.jpg",
"http://wayofhelp.com/pics/avatar/375_322_sm.jpg",
"http://wayofhelp.com/pics/avatar/365_608_sm.jpg",
"http://wayofhelp.com/pics/avatar/212_149_sm.jpg",
"http://wayofhelp.com/pics/avatar/16_195_sm.jpg",
"http://wayofhelp.com/pics/avatar/792_172_sm.jpg",
"http://wayofhelp.com/pics/avatar/481_26_sm.jpg",
"http://wayofhelp.com/pics/avatar/481_26_sm.jpg",
"http://wayofhelp.com/pics/avatar/481_26_sm.jpg",
"http://wayofhelp.com/pics/avatar/515_433_sm.jpg",
"http://wayofhelp.com/pics/avatar/375_322_sm.jpg",
"http://wayofhelp.com/pics/avatar/662_619_sm.jpg",
"http://wayofhelp.com/pics/avatar/516_433_sm.jpg",
"http://wayofhelp.com/pics/avatar/556_992_sm.jpg",
"http://wayofhelp.com/pics/avatar/492_897_sm.jpg",
"http://wayofhelp.com/pics/avatar/473_789_sm.jpg",
"http://wayofhelp.com/pics/avatar/485_472_sm.jpg",
"http://wayofhelp.com/pics/avatar/481_26_sm.jpg",
"http://wayofhelp.com/pics/avatar/365_608_sm.jpg",
"http://wayofhelp.com/pics/avatar/383_303_sm.jpg",
"http://wayofhelp.com/pics/avatar/375_322_sm.jpg",
"http://wayofhelp.com/pics/avatar/612_468_sm.jpg",
"http://wayofhelp.com/pics/avatar/375_322_sm.jpg",
"http://wayofhelp.com/pics/avatar/224_799_sm.jpg",
"http://wayofhelp.com/pics/avatar/250_787_sm.jpg",
"http://wayofhelp.com/pics/avatar/60_51_sm.jpg",
"http://wayofhelp.com/pics/avatar/250_787_sm.jpg",
"http://wayofhelp.com/pics/avatar/238_93_sm.jpg"
]
}